verilator/dump.vcd
$version Generated by VerilatedVcd $end
$timescale 1ps $end
 $scope module top $end
  $scope module $unit $end
   $var wire 32 : X_I [31:0] $end
   $var wire 32 ; X_F [31:0] $end
   $var wire 32 < X_W [31:0] $end
   $var wire 32 = Y_I [31:0] $end
   $var wire 32 ; Y_F [31:0] $end
   $var wire 32 > Y_W [31:0] $end
   $var wire 32 ? A_I [31:0] $end
   $var wire 32 @ A_F [31:0] $end
   $var wire 32 A A_W [31:0] $end
   $var wire 32 ? B_I [31:0] $end
   $var wire 32 B B_F [31:0] $end
   $var wire 32 C B_W [31:0] $end
   $var wire 32 = C_I [31:0] $end
   $var wire 32 D C_F [31:0] $end
   $var wire 32 E C_W [31:0] $end
  $upscope $end
  $var wire 1 2 clk $end
  $var wire 1 3 rst_b $end
  $var wire 24 4 x [23:0] $end
  $var wire 1 5 x_dv $end
  $var wire 25 6 y [24:0] $end
  $var wire 1 7 y_dv $end
  $scope module quadra_top $end
   $var wire 1 2 clk $end
   $var wire 1 3 rst_b $end
   $var wire 24 4 x [23:0] $end
   $var wire 1 5 x_dv $end
   $var wire 25 6 y [24:0] $end
   $var wire 1 7 y_dv $end
   $var wire 1 & dv_p0 $end
   $var wire 1 ' dv_p1 $end
   $var wire 1 ( dv_p2 $end
   $var wire 30 # a_lut_out [29:0] $end
   $var wire 19 $ b_lut_out [18:0] $end
   $var wire 13 % c_lut_out [12:0] $end
   $var wire 25 ) y_quadra_out [24:0] $end
   $scope module look_up_table $end
    $var wire 7 8 x1 [6:0] $end
    $var wire 30 # a [29:0] $end
    $var wire 19 $ b [18:0] $end
    $var wire 13 % c [12:0] $end
   $upscope $end
   $scope module quadratic_polynomial_interpolator $end
    $var wire 1 2 clk $end
    $var wire 1 3 rst_b $end
    $var wire 24 9 x [23:0] $end
    $var wire 1 5 x_dv $end
    $var wire 30 # a [29:0] $end
    $var wire 19 $ b [18:0] $end
    $var wire 13 % c [12:0] $end
    $var wire 25 ) y [24:0] $end
    $var wire 24 * x_lut [23:0] $end
    $var wire 30 + a_lut [29:0] $end
    $var wire 19 , b_lut [18:0] $end
    $var wire 13 - c_lut [12:0] $end
    $var wire 25 . x_squared [24:0] $end
    $var wire 25 / a_shift [24:0] $end
    $var wire 25 0 bx_shift [24:0] $end
    $var wire 25 1 cx2_shift [24:0] $end
    $scope module squarer $end
     $var wire 24 * x2 [23:0] $end
     $var wire 25 . sq [24:0] $end
    $upscope $end
   $upscope $end
  $upscope $end
 $upscope $end
$enddefinitions $end


#500
b111010010101111101100001100100 #
b0010110101000001100 $
b0101100111010 %
0&
0'
1(
b1100011001010111111000101 )
b010100111111001110000010 *
b100100010100011111111101100010 +
b0000001011000110101 ,
b0100100010010 -
b1111011000000111000000100 .
b0111110011010101101010110 /
b0001100100011101111111101 0
b0011010110100000111110100 1
02
13
b000000000000000000000000 4
05
b1100011001010111111000101 6
17
b0000000 8
b000000000000000000000000 9
b00000000000000000000000000000001 :
b00000000000000000000000000010111 ;
b00000000000000000000000000011000 <
b00000000000000000000000000000010 =
b00000000000000000000000000011001 >
b00000000000000000000000000000011 ?
b00000000000000000000000000011011 @
b00000000000000000000000000011110 A
b00000000000000000000000000010000 B
b00000000000000000000000000010011 C
b00000000000000000000000000001011 D
b00000000000000000000000000001101 E
#1000
0(
b1100101110010100101000111 )
b0010001010001111111110110 /
b0000000000000000001001110 0
b0000000000010001011100100 1
12
b1100101110010100101000111 6
07
#1500
b0000000000000000000000000 )
b000000000000000000000000 *
b000000000000000000000000000000 +
b0000000000000000000 ,
b0000000000000 -
b0000000000000000000000000 .
b0000000000000000000000000 /
b0000000000000000000000000 0
b0000000000000000000000000 1
02
03
b0000000000000000000000000 6
#2000
12
#2500
02
13
#3000
12
#3500
02
#4000
12
#4500
02
#5000
12
#5500
02
#6000
12
#6500
02
#7000
12
#7500
02
#8000
12
#8500
02
#9000
12
#9500
02
#10000
12
#10500
02
#11000
12
#11500
02
#12000
12
#12500
02
#13000
12
#13500
02
#14000
12
#14500
02
#15000
12
#15500
b111111101010101000000010001010 #
b1100000000001101111 $
b0000011001011 %
02
b111111111111111111110000 4
15
b1111111 8
b000000011111111111110000 9
#16000
1&
b000000011111111111110000 *
b111111101010101000000010001010 +
b1100000000001101111 ,
b0000011001011 -
b1110000000000000100000000 .
12
#16500
02
b111111111111111111110001 4
b000000011111111111110001 9
#17000
1'
b000000011111111111110001 *
b1110001000000000011100001 .
b1111110101010100000001000 /
b0000000000000000001111101 0
b0000000000010100000011001 1
12
#17500
02
b111111111111111111110010 4
b000000011111111111110010 9
#18000
1(
b1111110101101000010011110 )
b000000011111111111110010 *
b1110010000000000011000100 .
b0000000000000000010000011 0
b0000000000000110110010110 1
12
b1111110101101000010011110 6
17
#18500
02
b111111111111111111110011 4
b000000011111111111110011 9
#19000
b1111110101011011000100001 )
b000000011111111111110011 *
b1110011000000000010101001 .
b0000000000000000010001001 0
b0000000000011001100010011 1
12
b1111110101011011000100001 6
#19500
02
b111111111111111111110100 4
b000000011111111111110100 9
#20000
b1111110101101101110100100 )
b000000011111111111110100 *
b1110100000000000010010000 .
b0000000000000000010001111 0
b0000000000001100010010000 1
12
b1111110101101101110100100 6
#20500
02
b111111111111111111110101 4
b000000011111111111110101 9
#21000
b1111110101100000100100111 )
b000000011111111111110101 *
b1110101000000000001111001 .
b0000000000000000010010101 0
b0000000000011111000001110 1
12
b1111110101100000100100111 6
#21500
02
b111111111111111111110110 4
b000000011111111111110110 9
#22000
b1111110101110011010101011 )
b000000011111111111110110 *
b1110110000000000001100100 .
b0000000000000000010011011 0
b0000000000010001110001011 1
12
b1111110101110011010101011 6
#22500
02
b111111111111111111110111 4
b000000011111111111110111 9
#23000
b1111110101100110000101110 )
b000000011111111111110111 *
b1110111000000000001010001 .
b0000000000000000010100001 0
b0000000000000100100001001 1
12
b1111110101100110000101110 6
#23500
02
b111111111111111111111000 4
b000000011111111111111000 9
#24000
b1111110101011000110110010 )
b000000011111111111111000 *
b1111000000000000001000000 .
b0000000000000000010100111 0
b0000000000010111010001000 1
12
b1111110101011000110110010 6
#24500
02
b111111111111111111111001 4
b000000011111111111111001 9
#25000
b1111110101101011100110111 )
b000000011111111111111001 *
b1111001000000000000110001 .
b0000000000000000010101101 0
b0000000000001010000000110 1
12
b1111110101101011100110111 6
#25500
02
b111111111111111111111010 4
b000000011111111111111010 9
#26000
b1111110101011110010111011 )
b000000011111111111111010 *
b1111010000000000000100100 .
b0000000000000000010110011 0
b0000000000011100110000100 1
12
b1111110101011110010111011 6
#26500
02
b111111111111111111111011 4
b000000011111111111111011 9
#27000
b1111110101110001000111111 )
b000000011111111111111011 *
b1111011000000000000011001 .
b0000000000000000010111001 0
b0000000000001111100000011 1
12
b1111110101110001000111111 6
#27500
02
b111111111111111111111100 4
b000000011111111111111100 9
#28000
b1111110101100011111000100 )
b000000011111111111111100 *
b1111100000000000000010000 .
b0000000000000000010111111 0
b0000000000000010010000010 1
12
b1111110101100011111000100 6
#28500
02
b111111111111111111111101 4
b000000011111111111111101 9
#29000
b1111110101010110101001001 )
b000000011111111111111101 *
b1111101000000000000001001 .
b0000000000000000011000101 0
b0000000000010101000000001 1
12
b1111110101010110101001001 6
#29500
02
b111111111111111111111110 4
b000000011111111111111110 9
#30000
b1111110101101001011001110 )
b000000011111111111111110 *
b1111110000000000000000100 .
b0000000000000000011001011 0
b0000000000000111110000000 1
12
b1111110101101001011001110 6
#30500
02
b111111111111111111111111 4
b000000011111111111111111 9
#31000
b1111110101011100001010011 )
b000000011111111111111111 *
b1111111000000000000000001 .
b0000000000000000011010001 0
b0000000000011010100000000 1
12
b1111110101011100001010011 6
#31500
b111010010101111101100001100100 #
b0010110101000001100 $
b0101100111010 %
02
b000000000000000000000000 4
05
b0000000 8
b000000000000000000000000 9
#32000
0&
b1111110101101110111011001 )
b0000000000000000011010111 0
b0000000000001101010000000 1
12
b1111110101101110111011001 6
#32500
02
#33000
0'
b1111110101100001101011111 )
12
b1111110101100001101011111 6
#33500
02
#34000
0(
12
07
